protocols/flock_log.py "[1099511627775]" -e speed -doa
protocols/flock_log.py "[35184372088831]" -e speed -doa
protocols/flock_log.py "[1125899906842623]" -e speed -doa
protocols/flock_log.py "[36028797018963967]" -e speed -doa

protocols/flock_alternative.py "[20]" -e speed -doa
protocols/flock_alternative.py "[21]" -e speed -doa
protocols/flock_alternative.py "[22]" -e speed -doa
protocols/flock_alternative.py "[23]" -e speed -doa
protocols/flock_alternative.py "[24]" -e speed -doa
protocols/flock_alternative.py "[25]" -e speed -doa
protocols/flock_alternative.py "[26]" -e speed -doa


protocols/avc.py "[31,1]" -e speed
protocols/avc.py "[33,1]" -e speed
protocols/avc.py "[35,1]" -e speed
protocols/avc.py "[37,1]" -e speed
protocols/avc.py "[39,1]" -e speed
protocols/avc.py "[41,1]" -e speed
protocols/avc.py "[43,1]" -e speed
protocols/avc.py "[45,1]" -e speed
protocols/avc.py "[47,1]" -e speed

