{
    "timeout": 3600,
    "protocols":
    [
        [["../protocols/broadcast.py"]],
        [["../protocols/ninja.py"]],
        [["../protocols/majority_no_tiebreaker.py"]],
        [["../protocols/majority.py"]],
        [["../protocols/leader_election.py"]],
        [["../protocols/coffee_can.py"]],
        [["../protocols/firewire.py", [50]]],
        [["../protocols/firewire.py", [80]]],
        [["../protocols/firewire.py", [150]]],
        [["../protocols/mutex_simple.py", [3]], "t-inv", "backwards", "buchi HOA/GF_enter_0.hoa"],
        [["../protocols/mutex_simple.py", [100]], "t-inv", "backwards", "buchi HOA/GF_enter_0.hoa"],
        [["../protocols/mutex_simple.py", [300]], "t-inv", "backwards", "buchi HOA/GF_enter_0.hoa"],
        [["../protocols/mutex_array.py", [3]], "t-inv", "backwards", "buchi HOA/GF_enter_0.hoa"],
        [["../protocols/mutex_array.py", [4]], "t-inv", "backwards", "buchi HOA/GF_enter_0.hoa"],
        [["../protocols/mutex_array.py", [6]], "t-inv", "backwards", "buchi HOA/GF_enter_0.hoa"],
        [["../protocols/mutex_array.py", [9]], "t-inv", "backwards", "buchi HOA/GF_enter_0.hoa"],
        [["../protocols/mutex_array.py", [12]], "t-inv", "backwards", "buchi HOA/GF_enter_0.hoa"],
        [["../protocols/mutex_array.py", [15]], "t-inv", "backwards", "buchi HOA/GF_enter_0.hoa"],
        [["../protocols/mutex_burns.py", [5]], "t-inv", "backwards", "buchi HOA/GF_enter_0.hoa"],
        [["../protocols/mutex_burns.py", [6]], "t-inv", "backwards", "buchi HOA/GF_enter_0.hoa"],
        [["../protocols/mutex_burns.py", [7]], "t-inv", "backwards", "buchi HOA/GF_enter_0.hoa"],
        [["../protocols/mutex_burns.py", [8]], "t-inv", "backwards", "buchi HOA/GF_enter_0.hoa"],
        [["../protocols/mutex_burns.py", [9]], "t-inv", "backwards", "buchi HOA/GF_enter_0.hoa"],
        [["../protocols/mutex_dijkstra.py", [3]], "t-inv", "backwards", "buchi HOA/GF_enter_0.hoa"],
        [["../protocols/mutex_dijkstra.py", [4]], "t-inv", "backwards", "buchi HOA/GF_enter_0.hoa"],
        [["../protocols/mutex_dijkstra.py", [5]], "t-inv", "backwards", "buchi HOA/GF_enter_0.hoa"],
        [["../protocols/mutex_dijkstra.py", [6]], "t-inv", "backwards", "buchi HOA/GF_enter_0.hoa"],
        [["../protocols/mutex_peterson.py"], "t-inv", "backwards", "buchi HOA/GF_enter_0.hoa"],
        [["../protocols/mutex_szymanski.py", [3]], "t-inv", "backwards", "buchi HOA/GF_enter_0.hoa"],
        [["../protocols/mutex_szymanski.py", [4]], "t-inv", "backwards", "buchi HOA/GF_enter_0.hoa"],
        [["../protocols/mutex_szymanski.py", [5]], "t-inv", "backwards", "buchi HOA/GF_enter_0.hoa"],
        [["../protocols/mutex_szymanski.py", [6]], "t-inv", "backwards", "buchi HOA/GF_enter_0.hoa"],
        [["../protocols/lehmann_rabin.py", [4]], "t-inv", "backwards", "buchi HOA/GF_eat_0.hoa"],
        [["../protocols/lehmann_rabin.py", [5]], "t-inv", "backwards", "buchi HOA/GF_eat_0.hoa"],
        [["../protocols/lehmann_rabin.py", [6]], "t-inv", "backwards", "buchi HOA/GF_eat_0.hoa"],
        [["../protocols/lehmann_rabin.py", [7]], "t-inv", "backwards", "buchi HOA/GF_eat_0.hoa"],
        [["../protocols/lehmann_rabin.py", [8]], "t-inv", "backwards", "buchi HOA/GF_eat_0.hoa"],
        [["../protocols/kanban.py", [3]], "t-inv", "backwards", "buchi HOA/GF_produce.hoa"],
        [["../protocols/kanban.py", [4]], "t-inv", "backwards", "buchi HOA/GF_produce.hoa"],
        [["../protocols/kanban.py", [5]], "t-inv", "backwards", "buchi HOA/GF_produce.hoa"],
        [["../protocols/kanban.py", [6]], "t-inv", "backwards", "buchi HOA/GF_produce.hoa"],
        [["../protocols/flock.py", [2]]],
        [["../protocols/flock.py", [3]]],
        [["../protocols/flock.py", [4]]],
        [["../protocols/flock.py", [5]]],
        [["../protocols/flock.py", [10]]],
        [["../protocols/flock.py", [15]]],
        [["../protocols/flock.py", [30]]],
        [["../protocols/flock.py", [35]]],
        [["../protocols/flock.py", [40]]],
        [["../protocols/flock.py", [45]]],
        [["../protocols/flock_log.py", [3]]],
        [["../protocols/flock_log.py", [7]]],
        [["../protocols/flock_log.py", [15]]],
        [["../protocols/flock_log.py", [31]]],
        [["../protocols/flock_log.py", [63]]],
        [["../protocols/flock_log.py", [127]]],
        [["../protocols/flock_log.py", [255]]],
        [["../protocols/flock_log.py", [511]]],
        [["../protocols/flock_log_reverse.py", [3]], "backwards"],
        [["../protocols/flock_log_reverse.py", [7]], "backwards"],
        [["../protocols/flock_log_reverse.py", [15]], "backwards"],
        [["../protocols/flock_log_reverse.py", [31]], "backwards"],
        [["../protocols/flock_log_reverse_k.py", [3]], "backwards"],
        [["../protocols/flock_log_reverse_k.py", [7]], "backwards"],
        [["../protocols/flock_log_reverse_k.py", [15]], "backwards"],
        [["../protocols/flock_log_reverse_k.py", [31]], "backwards"],
        [["../protocols/flock_log_reverse_k.py", [63]], "backwards"],
        [["../protocols/flock_log_reverse_k.py", [127]], "backwards"],
        [["../protocols/flock_log_reverse_k.py", [255]], "backwards"],
        [["../protocols/flock_log_reverse_k.py", [511]], "backwards"],
        [["../protocols/flock_alternative.py", [3]]],
        [["../protocols/flock_alternative.py", [7]]],
        [["../protocols/flock_alternative.py", [15]]],
        [["../protocols/flock_alternative.py", [25]]],
        [["../protocols/flock_alternative.py", [31]]],
        [["../protocols/flock_alternative.py", [40]]],
        [["../protocols/modulo.py", [[1], 0, 2]]],
        [["../protocols/modulo.py", [[1, 2], 0, 3]]],
        [["../protocols/modulo.py", [[1, 2, 3], 0, 4]]],
        [["../protocols/modulo.py", [[1, 2, 3, 4], 0, 5]]],
        [["../protocols/modulo.py", [[1, 2, 3, 4, 5], 0, 6]]],
        [["../protocols/modulo.py", [[1, 2, 3, 4, 5, 6], 0, 7]]],
        [["../protocols/modulo.py", [[1, 2, 3, 4, 5, 6, 7], 0, 8]]],
        [["../protocols/modulo.py", [[1, 2, 3, 4, 5, 6, 7], 0, 12]]],
        [["../protocols/modulo.py", [[1, 2, 3, 4, 5, 6, 7], 0, 15]]],
        [["../protocols/modulo_log.py", [[1, 2, 3, 4, 5, 6, 7], 15, 0]], "backwards"],
        [["../protocols/modulo_log.py", [[1, 2, 3, 4, 5, 6, 7], 31, 0]], "backwards"],
        [["../protocols/modulo_log.py", [[1, 2, 3, 4, 5, 6, 7], 31, 0]], "backwards"],
        [["../protocols/modulo_log.py", [[1, 2, 3, 4, 5, 6, 7], 63, 0]], "backwards"],
        [["../protocols/modulo_log.py", [[1, 2, 3, 4, 5, 6, 7], 127, 0]], "backwards"],
        [["../protocols/modulo_log.py", [[1, 2, 3, 4, 5, 6, 7], 255, 0]], "backwards"],
        [["../protocols/modulo_log.py", [[1, 2, 3, 4, 5, 6, 7], 511, 0]], "backwards"],
        [["../protocols/avc.py", [3, 1]]],
        [["../protocols/avc.py", [3, 2]]],
        [["../protocols/avc.py", [5, 1]]],
        [["../protocols/avc.py", [5, 2]]],
        [["../protocols/avc.py", [5, 3]]],
        [["../protocols/avc.py", [5, 4]]],
        [["../protocols/avc.py", [7, 1]]],
        [["../protocols/avc.py", [7, 2]]],
        [["../protocols/avc.py", [7, 3]]],
        [["../protocols/avc.py", [7, 4]]],
        [["../protocols/threshold.py", [[-1, 1], -1]]],
        [["../protocols/threshold.py", [[-1, 1], 0]]],
        [["../protocols/threshold.py", [[-1, 1], 1]]],
        [["../protocols/threshold.py", [[-2, -1, 1, 2], -2]]],
        [["../protocols/threshold.py", [[-2, -1, 1, 2], -1]]],
        [["../protocols/threshold.py", [[-2, -1, 1, 2], 0]]],
        [["../protocols/threshold.py", [[-2, -1, 1, 2], 1]]],
        [["../protocols/threshold.py", [[-2, -1, 1, 2], 2]]],
        [["../protocols/threshold.py", [[-2, -1, 1, 2], 3]]],
        [["../protocols/threshold.py", [[-2, -1, 1, 2], 4]]],
        [["../protocols/threshold.py", [[-2, -1, 1, 2], 5]]],
        [["../protocols/threshold.py", [[-2, -1, 1, 2], 6]]],
        [["../protocols/threshold_improved.py", [[-1, 1], -1]]],
        [["../protocols/threshold_improved.py", [[-1, 1], 0]]],
        [["../protocols/threshold_improved.py", [[-1, 1], 1]]],
        [["../protocols/threshold_improved.py", [[-2, -1, 1, 2], -2]]],
        [["../protocols/threshold_improved.py", [[-2, -1, 1, 2], -1]]],
        [["../protocols/threshold_improved.py", [[-2, -1, 1, 2], 0]]],
        [["../protocols/threshold_improved.py", [[-2, -1, 1, 2], 1]]],
        [["../protocols/threshold_improved.py", [[-2, -1, 1, 2], 2]]],
        [["../protocols/threshold_improved.py", [[-2, -1, 1, 2], 3]]],
        [["../protocols/threshold_improved.py", [[-2, -1, 1, 2], 4]]],
        [["../protocols/threshold_improved.py", [[-2, -1, 1, 2], 5]]],
        [["../protocols/threshold_improved.py", [[-2, -1, 1, 2], 6]]],
        [["../protocols/threshold_improved.py", [[-2, -1, 1, 2], 7]]],
        [["../protocols/threshold_log.py", [[-1, 1], -1]], "backwards"],
        [["../protocols/threshold_log.py", [[-1, 1], 0]], "backwards"],
        [["../protocols/threshold_log.py", [[-1, 1], 1]], "backwards"],
        [["../protocols/threshold_log.py", [[-2, -1, 1, 2], -2]], "backwards"],
        [["../protocols/threshold_log.py", [[-2, -1, 1, 2], -1]], "backwards"],
        [["../protocols/threshold_log.py", [[-2, -1, 1, 2], 0]], "backwards"],
        [["../protocols/threshold_log.py", [[-2, -1, 1, 2], 1]], "backwards"],
        [["../protocols/threshold_log.py", [[-2, -1, 1, 2], 2]], "backwards"],
        [["../protocols/threshold_log.py", [[-2, -1, 1, 2], 3]], "backwards"],
        [["../protocols/threshold_log.py", [[-2, -1, 1, 2], 4]], "backwards"],
        [["../protocols/threshold_log.py", [[-2, -1, 1, 2], 6]], "backwards"],
        [["../protocols/threshold_log.py", [[-2, -1, 1, 2], 14]], "backwards"],
        [["../protocols/threshold_log.py", [[-2, -1, 1, 2], 30]], "backwards"],
        [["../protocols/threshold_log.py", [[-2, -1, 1, 2], 62]], "backwards"],
        [["../protocols/threshold_log.py", [[-2, -1, 1, 2], 126]], "backwards"],
        [["../protocols/threshold_log.py", [[-2, -1, 1, 2], 254]], "backwards"],
        [["../protocols/automatic.py", ["x%2=0&&x%3=1"]]],
        [["../protocols/automatic.py", ["x%2=0&&y%2=1||z%2=0"]]],
        [["../protocols/automatic.py", ["x%2=0&&y%2=1||z%2=0&&y%2=0"]]],
        [["../protocols/automatic.py", ["x+1=2*y||x<y+1"]]],
        [["../protocols/automatic_log.py", ["x%2=0&&y%2=1"]], "backwards"],
        [["../protocols/automatic_log.py", ["x=y&&y%2=1"]], "backwards"],
        [["../protocols/herman_modified.py", [31]], "backwards"],
        [["../protocols/herman_modified.py", [37]], "backwards"],
        [["../protocols/herman_modified.py", [43]], "backwards"],
        [["../protocols/herman_modified.py", [51]], "backwards"],
        [["../protocols/herman_original.py", [91]], "backwards"],
        [["../protocols/herman_original.py", [111]], "backwards"],
        [["../protocols/herman_original.py", [191]], "backwards"]
    ]
}
